^D:\PROGECT 2 C++\CONSOLEAPPLICATION1\CONSOLEAPPLICATION1\DEBUG\HELPERS.OBJ|D:\PROGECT 2 C++\CONSOLEAPPLICATION1\CONSOLEAPPLICATION1\DEBUG\MAIN.OBJ
D:\PROGECT 2 C++\CONSOLEAPPLICATION1\DEBUG\CONSOLEAPPLICATION1.EXE
D:\PROGECT 2 C++\CONSOLEAPPLICATION1\CONSOLEAPPLICATION1\DEBUG\CONSOLEAPPLICATION1.ILK
D:\PROGECT 2 C++\CONSOLEAPPLICATION1\DEBUG\CONSOLEAPPLICATION1.PDB
